…
Error: unexpected ',' in "y1,"
> width = 0.25
> ax3.bar(x, y1, width)
Error: could not find function "ax3.bar"
> ax3.bar(x+width, y2, width, color=plt.rcParams['axes.color_cycle'][2])
Error: could not find function "ax3.bar"
> ax3.set_xticks(x+width)
Error: could not find function "ax3.set_xticks"
> ax3.set_xticklabels(['a', 'b', 'c', 'd', 'e'])
Error: unexpected '[' in "ax3.set_xticklabels(["
> 
> 
> data2 = data_frame(Budget=Budget, Box_Office=Box_Office)
> data2
# A tibble: 23 x 2
   Budget Box_Office
    <dbl>      <dbl>
1   150.0      378.4
2   135.0      533.0
3    40.0      165.5
4    28.0      133.3
5    15.0       64.2
6    13.0       36.0
7    15.0       36.9
8    54.0      155.8
9   175.0      857.4
10    3.4       22.0
# ... with 13 more rows
…
Error in data.frame(list(x = c(150, 135, 40, 28, 15, 13, 15, 54, 175,  : 
  arguments imply differing number of rows: 46, 322
> nrow(NewData)
[1] 46
> ggplot(data=NewData, aes(x=value)) + geom_bar(stat="identity")
Error in `$<-.data.frame`(`*tmp*`, "ymax", value = numeric(0)) : 
  replacement has 0 rows, data has 7
In addition: Warning messages:
1: Removed 59 rows containing missing values (position_stack). 
2: In is.na(df$y) : is.na() applied to non-(list or vector) of type 'NULL'
> ggplot(data=NewData, aes(x=variale, y=value)) + geom_bar(stat="identity")
Error in eval(expr, envir, enclos) : object 'variale' not found
> ggplot(data=NewData, aes(x=variable, y=value)) + geom_bar(stat="identity")
> data2
# A tibble: 23 x 2
   Budget Box_Office
    <dbl>      <dbl>
1   150.0      378.4
2   135.0      533.0
3    40.0      165.5
4    28.0      133.3
5    15.0       64.2
6    13.0       36.0
7    15.0       36.9
8    54.0      155.8
9   175.0      857.4
10    3.4       22.0
# ... with 13 more rows
…
11                Spotlight         129   20.0       88.3      2           6 2015
12                  Birdman         119   18.0      103.2      4           9 2014
13 The Grand Budapest Hotel         100   23.0      174.8      4           9 2014
14                 Whiplash         106    3.3       49.0      3           5 2014
15       The Imitation Game         114   14.0      233.6      1           8 2014
16          American Sniper         132   58.8      547.4      1           6 2014
17                  Boyhood         165    4.0       44.5      1           6 2014
18             Interstellar         169  165.0      675.1      1           5 2014
19 The Theory of Everything         123   15.0      123.7      1           5 2014
20                      Ida          82    2.0       11.1      1           2 2014
21                    Selma         128   20.0       66.8      1           2 2014
22              Citizenfour         113    1.0        3.5      1           1 2014
23               Big Hero 6         102  165.0      657.8      1           1 2014
> data2
# A tibble: 23 x 3
   Budget Box_Office    ID
    <dbl>      <dbl> <int>
1   150.0      378.4     1
2   135.0      533.0     2
3    40.0      165.5     3
4    28.0      133.3     4
5    15.0       64.2     5
6    13.0       36.0     6
7    15.0       36.9     7
8    54.0      155.8     8
9   175.0      857.4     9
10    3.4       22.0    10
# ... with 13 more rows
…
38 15 Box_Office 233.6
39 16 Box_Office 547.4
40 17 Box_Office  44.5
41 18 Box_Office 675.1
42 19 Box_Office 123.7
43 20 Box_Office  11.1
44 21 Box_Office  66.8
45 22 Box_Office   3.5
46 23 Box_Office 657.8
> ggplot(data=NewData, aes(x=ID, y=value, fill= factor(variable))) + geom_bar(stat="identity")
> data2$ID<-seq(1,23)
> 
> NewData2 = data_frame(Awards=Awards, Nominations=Nominations)
> NewData2
# A tibble: 23 x 2
   Awards Nominations
    <dbl>       <dbl>
1       6          10
2       3          12
3       1           6
4       1           5
5       1           4
6       1           4
7       1           2
8       1           2
9       1           2
10      1           1
# ... with 13 more rows
> names(NewData2)
[1] "Awards"      "Nominations"
> NewData3<-melt(NewData2, id='ID')
> NewData3
> NewData3$ID<-seq(1,23)

> NewData2$ID<-seq(1,23)
> NewData3<-melt(NewData2)

> names(NewData2)
[1] "Awards"      "Nominations" "ID"         
> NewData2
# A tibble: 23 x 3
   Awards Nominations    ID
    <dbl>       <dbl> <int>
1       6          10     1
2       3          12     2
3       1           6     3
4       1           5     4
5       1           4     5
6       1           4     6
7       1           2     7
8       1           2     8
9       1           2     9
10      1           1    10
# ... with 13 more rows
…
