Exploratory Visualization of US Domestic Flights in Year 2009
…
2.RITA/Transtats, Bureau of Transportation Statistics

Year: 2009

URL: http://www.infochimps.com/datasets/35-million-us-domestic-flights-from-1990-to-2009

Data Manipulation

Bascially, The original data set is abstracted into only one year of 2009 and remove the rows that the origin airport and destination airport is the same. Additionaly, I also delete the rows with zero value in column Passengers.

Data set of Year 2009

tbl_df(year2009)

## # A tibble: 178,268 x 13
##     Year Month Origin Destination     Origin.City Destination.City
##    <int> <int> <fctr>      <fctr>          <fctr>           <fctr>
## 1   2009     6    LAX         RDM Los Angeles, CA         Bend, OR
## 2   2009     3    LAX         RDM Los Angeles, CA         Bend, OR
## 3   2009    12    LAX         RDM Los Angeles, CA         Bend, OR
## 4   2009     1    LAX         RDM Los Angeles, CA         Bend, OR
## 5   2009    11    LAX         RDM Los Angeles, CA         Bend, OR
## 6   2009     5    LAX         RDM Los Angeles, CA         Bend, OR
## 7   2009     2    LAX         RDM Los Angeles, CA         Bend, OR
## 8   2009     7    LAX         RDM Los Angeles, CA         Bend, OR
## 9   2009     4    LAX         RDM Los Angeles, CA         Bend, OR
## 10  2009     2    LAX         RDM Los Angeles, CA         Bend, OR
## # ... with 178,258 more rows, and 7 more variables: Passengers <int>,
## #   Seats <int>, Flights <int>, Distance <int>, Fly.Date <int>,
## #   Origin.Population <int>, Destination.Population <int>
…
